cr_startup_lpc18xx.c:254:6:data_init	40	static
cr_startup_lpc18xx.c:263:6:bss_init	24	static
cr_startup_lpc18xx.c:289:1:ResetISR	40	static
cr_startup_lpc18xx.c:416:6:NMI_Handler	4	static
cr_startup_lpc18xx.c:421:6:HardFault_Handler	4	static
cr_startup_lpc18xx.c:426:6:MemManage_Handler	4	static
cr_startup_lpc18xx.c:431:6:BusFault_Handler	4	static
cr_startup_lpc18xx.c:436:6:UsageFault_Handler	4	static
cr_startup_lpc18xx.c:441:6:SVC_Handler	4	static
cr_startup_lpc18xx.c:446:6:DebugMon_Handler	4	static
cr_startup_lpc18xx.c:451:6:PendSV_Handler	4	static
cr_startup_lpc18xx.c:456:6:SysTick_Handler	4	static
cr_startup_lpc18xx.c:468:6:IntDefaultHandler	4	static
